{
    "$schema": "https://raw.githubusercontent.com/martinring/tmlanguage/master/tmlanguage.json",
	"name": "umbra-lang",
	"patterns": [
		{
			"include": "#keywords"
		},
		{
			"include": "#comments"
		},
		{
			"include": "#strings"
		},
		{
			"include": "#variables"
		},
		{
			"include": "#constants"
		}
	],
	"repository": {
		"keywords": {
			"patterns": [
				{
				"name": "keyword.control.um",
				"match": "\\b(?i)(let|set|include|pow|for|while|if|elif|else)\\b"
				},

				{
				"name": "keyword.other.um",
				"match": "\\b(?i)(def)\\b"
				}
			]
			},

		"comments": {
			"patterns": [
				{
				"name": "comment.line.semi-colon.um",
				"begin": "//",
				"end": "\n"
				}
			]
		},
		"strings":{
			"patterns": [
				{
				"name":"string.quoted.single.um",
				"begin": "'",
				"end": "'"
				},
				{
				"name":"string.quoted.double.um",
				"begin": "\"",
				"end": "\""
				}
			]
		},
		"variables":{
			"patterns": [
				{
				"name": "variable.language.um"	,
				"match": "\\b(?i)(int|float|char|nil|struct)\\b"
				}
			]
		},
		"constants": {
			"patterns": [
				{
				"name": "constant.numeric",
				"match": "((\\b[0-9]+)?\\.)?[0-9]+\\b"
				}
			]
		}
	},
	"scopeName": "source.um"
}